<?xml version="1.0" encoding="UTF-8" standalone="no"?>
<!-- Created with Inkscape (http://www.inkscape.org/) -->

<svg
   version="1.1"
   id="svg2"
   width="613.04254"
   height="1457.6934"
   viewBox="0 0 613.04254 1457.6934"
   sodipodi:docname="git-history0_changed.svg"
   inkscape:version="1.2.2 (b0a8486541, 2022-12-01)"
   inkscape:export-filename="git-history2.svg"
   inkscape:export-xdpi="151.943"
   inkscape:export-ydpi="151.943"
   xmlns:inkscape="http://www.inkscape.org/namespaces/inkscape"
   xmlns:sodipodi="http://sodipodi.sourceforge.net/DTD/sodipodi-0.dtd"
   xmlns="http://www.w3.org/2000/svg"
   xmlns:svg="http://www.w3.org/2000/svg">
  <defs
     id="defs6">
    <rect
       x="365.2789"
       y="38.442909"
       width="736.77289"
       height="71.162506"
       id="rect704" />
  </defs>
  <style
     id="style3">
  circle {
    visibility: hidden;
    fill: none;
    pointer-events: all;
  }
  circle:hover {
    visibility: visible;
    cursor: pointer;
  }
  </style>
  <sodipodi:namedview
     id="namedview4"
     pagecolor="#ffffff"
     bordercolor="#666666"
     borderopacity="1.0"
     inkscape:showpageshadow="2"
     inkscape:pageopacity="0.0"
     inkscape:pagecheckerboard="0"
     inkscape:deskcolor="#d1d1d1"
     showgrid="false"
     inkscape:zoom="1.5014261"
     inkscape:cx="338.34498"
     inkscape:cy="218.79198"
     inkscape:window-width="958"
     inkscape:window-height="1078"
     inkscape:window-x="0"
     inkscape:window-y="0"
     inkscape:window-maximized="1"
     inkscape:current-layer="g8" />
  <g
     inkscape:groupmode="layer"
     inkscape:label="Image"
     id="g8"
     transform="translate(-118.68268,-210.14246)">
    <g
       id="g1569"
       transform="rotate(-5.1392535,502.74672,936.91044)">
      <path
         style="fill:#000000"
         d="m 434.03023,1393.7778 c -2.48783,-1.3163 -3.02687,-2.1574 -7.2274,-11.2778 -3.22496,-7.0022 -3.15713,-20.047 0.13645,-26.2431 2.34079,-4.4036 7.95361,-9.5053 12.25833,-11.1419 l 2.4855,-0.945 0.606,-19.335 c 0.42784,-13.6507 1.32284,-23.4509 3.04432,-33.335 1.34107,-7.7 2.9389,-18.5 3.55071,-24 0.61182,-5.5 1.99729,-17.875 3.07881,-27.5 1.08152,-9.625 2.07494,-21.325 2.20758,-26 l 0.24117,-8.5 -3.85088,-3.975 c -2.11798,-2.1862 -4.41536,-5.3362 -5.10528,-7 -3.27738,-7.9034 -2.47344,-30.5157 1.28909,-36.258 1.16908,-1.7842 1.26889,-2.6535 0.40402,-3.5183 -2.12859,-2.1286 -1.17288,-3.6944 4.10135,-6.7191 3.66162,-2.0999 6.59435,-3.0137 9.6934,-3.0202 4.0684,-0.01 4.88471,0.4462 9.67232,5.3892 10.63232,10.9772 16.99796,29.618 12.86226,37.6651 -3.93363,7.654 -10.5608,14.8049 -15.3459,16.5587 -2.54764,0.9338 -5.15901,2.1882 -5.80304,2.7877 -0.65075,0.6057 -1.69472,7.0875 -2.34988,14.5899 -0.6484,7.425 -1.53685,14.175 -1.97432,15 -0.43748,0.825 -1.5386,9.825 -2.44695,20 -1.65708,18.5623 -3.74618,33.7413 -5.46204,39.6861 -0.6977,2.4173 -2.515,32.8012 -2.58614,43.2383 -0.006,0.9123 1.96592,1.8694 5.48509,2.6619 8.91005,2.0068 12.48382,7.8386 15.07112,24.5939 0.65227,4.2241 0.88489,8.8796 0.51694,10.3457 -0.61998,2.4702 -6.10944,8.4741 -7.74797,8.4741 -0.39566,0 -3.71671,1.8793 -7.38012,4.1763 -7.39276,4.6352 -14.85559,6.0189 -19.42454,3.6015 z m 17.54559,-9.2926 C 460.82818,1378.7185 462,1377.0737 462,1369.8538 c 0,-9.2435 -1.89541,-15.5548 -5.66554,-18.865 l -3.29472,-2.8928 -5.26987,1.5584 c -6.51382,1.9263 -7.69926,2.5517 -10.48607,5.5322 -4.80733,5.1416 -6.44691,15.4074 -4.28308,26.8172 1.7965,9.4729 6.3761,10.0847 18.5751,2.4814 z m 12.62889,-185.5253 c 2.80106,-0.7779 4.84543,-2.5289 8.38139,-7.1783 6.53043,-8.587 7.19412,-11.5966 4.35547,-19.7508 C 473.2198,1161.3397 465.51158,1151 461.26325,1151 c -1.29941,0 -3.70255,0.6929 -5.3403,1.5398 -2.29248,1.1855 -2.7703,1.9106 -2.07633,3.1506 0.62447,1.1159 0.14872,3.0615 -1.54858,6.3329 -2.03393,3.9203 -2.54605,6.6732 -3.01579,16.211 -0.52307,10.6207 -0.39685,11.7895 1.67024,15.4674 1.95041,3.4703 5.24287,5.8532 8.54751,6.1863 0.55,0.056 2.66712,-0.3622 4.70471,-0.9281 z M 464.2,1137.8 c -1.51171,-1.5117 -1.59169,-18.987 -0.14095,-30.8 0.57413,-4.675 1.22615,-26.95 1.44893,-49.5 l 0.40506,-41 3.86403,-13.4964 3.86403,-13.49633 -4.87404,-7.00364 C 459.97571,969.87108 459.02694,968.54761 455.50211,964 449.30326,956.00244 443,946.55452 443,945.26068 443,944.5673 442.62628,944 442.16952,944 c -0.45676,0 -2.21606,-1.9125 -3.90955,-4.25 -1.69349,-2.3375 -3.95161,-5.17052 -5.01806,-6.29561 -1.06644,-1.12508 -2.11964,-2.54648 -2.34045,-3.15865 -0.56398,-1.56363 -13.24617,-15.76296 -19.66568,-22.01825 -2.9478,-2.87238 -5.81065,-6.69738 -6.3619,-8.5 -0.55126,-1.80262 -0.91001,-10.47749 -0.79724,-19.27749 0.335,-26.14076 0.0775,-50.70959 -0.57875,-55.22891 -0.55461,-3.81917 -1.03631,-4.41567 -4.97166,-6.15646 -2.39665,-1.06015 -5.04583,-2.98214 -5.88708,-4.27109 -2.86261,-4.38609 -4.16327,-20.34876 -2.18724,-26.84354 1.01208,-3.3265 9.16808,-11.71558 13.54809,-13.93527 7.17666,-3.63698 16.19188,2.13221 21.77593,13.93527 3.09626,6.54458 3.22008,11.14138 0.44518,16.52712 -2.48574,4.82453 -4.45966,6.85593 -11.38603,11.71762 L 409.5,819.98949 V 858.24474 896.5 l 3.28357,4.69477 c 1.80597,2.58213 6.7736,8.65713 11.03918,13.5 7.63467,8.66792 13.97263,16.78722 25.54481,32.72443 3.22716,4.44444 6.93966,9.23042 8.25,10.63552 1.31034,1.40509 2.38244,2.87971 2.38244,3.27691 0,0.94591 11.48639,15.99722 13.45525,17.63123 1.8656,1.54831 2.24574,0.69266 2.87128,-6.46286 0.24041,-2.75 0.95006,-10.85 1.57701,-18 0.62694,-7.15 1.63824,-16.375 2.24734,-20.5 0.63814,-4.3217 1.21182,-25.51036 1.35375,-50 0.1519,-26.21122 0.69431,-45.37449 1.41523,-50 2.56349,-16.44755 3.87478,-33.42073 4.00986,-51.90336 0.078,-10.67185 0.34602,-19.73377 0.5956,-20.13761 0.24958,-0.40383 0.48959,-6.29731 0.53335,-13.09663 0.071,-11.02895 1.12917,-27.75167 3.94621,-62.3624 0.49243,-6.05 1.34858,-16.625 1.90257,-23.5 0.97682,-12.12244 3.43486,-34.03485 4.71803,-42.05936 0.58505,-3.65871 0.46001,-3.94091 -1.74767,-3.94438 -3.97312,-0.006 -8.56024,-3.50398 -9.89355,-7.54396 -1.74616,-5.2909 -0.76349,-18.81137 1.7856,-24.56792 1.51071,-3.41161 2.71863,-4.74461 4.63065,-5.11011 2.76256,-0.5281 5.54158,1.52545 3.64805,2.69572 C 496.47185,582.82641 496,583.99148 496,585.05902 496,586.12656 495.39723,587 494.66052,587 c -2.16686,0 -3.8902,4.97936 -4.42751,12.79265 -0.45481,6.61372 -0.28658,7.52143 1.80706,9.75 3.55323,3.78224 8.11251,2.86243 8.3412,-1.68279 0.10139,-2.01532 0.64607,-2.36497 3.73064,-2.39485 4.38658,-0.0425 8.99604,-4.19509 11.44186,-10.30778 1.35064,-3.37559 1.4256,-4.6897 0.4382,-7.68156 -1.33593,-4.04792 -5.54255,-6.82088 -6.93341,-4.57042 -0.43902,0.71034 -1.61587,1.13407 -2.61522,0.94161 -2.27092,-0.43734 -4.03686,-6.42679 -2.45637,-8.33116 0.59885,-0.72157 1.26627,-4.62029 1.48316,-8.66382 0.59243,-11.04513 0.68456,-49.79257 0.12055,-50.70515 -0.27081,-0.43819 -0.76768,-5.71296 -1.10414,-11.72172 -0.33646,-6.00875 -0.85759,-13.17501 -1.15805,-15.92501 -1.18414,-10.83777 -0.82049,-41.04515 0.58988,-49 1.02433,-5.77749 1.47974,-18.41801 1.63928,-45.5 0.20952,-35.56736 1.1134,-52.58162 3.45311,-65 0.56993,-3.025 1.06911,-15.63198 1.10928,-28.0155 0.0726,-22.38465 0.058,-22.54389 -2.52349,-27.39894 -2.84487,-5.35046 -3.08744,-7.42964 -1.61248,-13.82121 0.54124,-2.34539 1.21731,-5.47197 1.50239,-6.94796 0.95218,-4.92992 9.64238,-9.00481 15.87034,-7.44169 1.35596,0.34033 3.85539,2.50889 5.55429,4.81904 2.86941,3.90179 3.08891,4.79311 3.08891,12.5431 0,12.99001 -4.45164,20.08618 -11.85772,18.9019 -2.58964,-0.4141 -4.23844,-0.2055 -4.88565,0.61811 -0.56768,0.7224 -1.03558,11.71551 -1.11699,26.24315 -0.077,13.75 -0.5681,27.475 -1.09122,30.5 -3.17451,18.35676 -4.65134,52.72736 -3.05253,71.04246 1.01016,11.57189 0.95315,14.86965 -0.39181,22.66329 -2.51966,14.60067 -3.01716,22.74721 -1.68066,27.52074 1.00935,3.60502 0.95222,4.78217 -0.35364,7.28657 -1.96658,3.77156 -1.9611,9.1219 0.0292,28.48694 1.39314,13.55499 2.33453,41.88204 2.38529,71.77475 0.0148,8.73766 0.14829,9.32514 2.30445,10.14491 2.8491,1.08323 9.7113,8.56154 9.7113,10.58322 0,2.38722 1.20989,1.81671 7.54328,-3.55692 3.2762,-2.77973 8.23462,-6.57263 11.01871,-8.42867 C 544.99633,573.5611 554,562.57874 554,560.12608 c 0,-0.44613 1.6875,-1.662 3.75,-2.70194 6.31674,-3.18497 18.19868,-11.82202 18.80767,-13.67139 0.31645,-0.96098 0.73334,-12.90803 0.92643,-26.549 0.19309,-13.64096 0.82694,-28.3797 1.40856,-32.75275 2.33336,-17.54402 3.2211,-34.58705 2.53581,-48.68287 -0.48381,-9.95143 -0.31571,-17.06472 0.53205,-22.51435 1.07446,-6.90693 1.03196,-8.36765 -0.31953,-10.98113 -0.85736,-1.65796 -1.83386,-5.88506 -2.17001,-9.39356 -0.58254,-6.08036 -0.43725,-6.66859 3.1025,-12.56094 3.31658,-5.52088 4.25537,-6.35904 8.78006,-7.83899 6.05392,-1.98014 13.69863,-1.34192 18.43618,1.53915 5.33175,3.24244 7.72585,12.33569 5.1746,19.65419 -1.91214,5.48519 -14.31815,13.38468 -21.7556,13.85282 -2.42646,0.15273 -4.74484,0.65952 -5.15196,1.12619 -1.65945,1.90215 -2.99471,19.42286 -2.42719,31.84849 0.42869,9.38607 -0.008,19.86611 -1.57251,37.69872 -1.67715,19.12218 -2.07199,29.61896 -1.74875,46.4907 l 0.4175,21.79199 -3.55574,3.25693 c -1.95565,1.7913 -5.38146,4.48173 -7.6129,5.97871 -7.9055,5.30348 -13.63762,10.56409 -16.11247,14.78711 -1.74825,2.98316 -4.84819,5.79853 -10.24681,9.30616 -4.25714,2.76599 -10.35008,7.7652 -13.53988,11.10937 -4.40652,4.61978 -6.4741,6.08031 -8.6075,6.08031 -2.18181,0 -3.08707,0.67404 -4.06007,3.02308 -0.68871,1.66269 -3.83289,5.55003 -6.98706,8.63854 -5.34835,5.237 -5.80924,6.06106 -6.83857,12.22692 -3.62541,21.71696 -6.32062,44.73588 -7.74077,66.11146 -0.38368,5.775 -0.81558,11.625 -0.95978,13 -1.21117,11.54906 -1.9212,27.55433 -2.97227,67 -0.7669,28.78136 -2.21672,51.31634 -4.09898,63.71178 -2.19328,14.4437 -3.00125,37.2007 -2.22924,62.78822 0.36507,12.1 0.27471,26.725 -0.2008,32.5 -2.0231,24.56997 -3.18103,34.53572 -4.23594,36.45649 -0.61727,1.12393 -1.25212,7.66851 -1.41077,14.54351 -0.15865,6.875 -0.71846,13.4 -1.24404,14.5 -0.52557,1.1 -1.40508,4.025 -1.95447,6.5 -0.54938,2.475 -2.22231,9.225 -3.71761,15 -2.68329,10.3631 -2.72187,10.9668 -2.95867,46.2966 -0.13197,19.6881 -0.79349,41.2821 -1.47005,47.9866 -0.67655,6.7045 -0.94707,15.8722 -0.60114,20.3726 0.34593,4.5004 0.35599,8.894 0.0224,9.7634 -0.71782,1.8706 -3.49887,2.0746 -5.19263,0.3808 z M 411.91924,810.89509 C 423.1116,803.42112 425.19053,793.80449 417.73346,784 413.76447,778.78161 407,777.13591 407,781.38871 c 0,1.93024 -0.66018,2.51256 -3.43972,3.034 -2.06574,0.38754 -4.46241,1.8607 -6,3.68802 -2.3011,2.7347 -2.56028,3.89067 -2.56028,11.41894 0,9.14951 1.08787,12.71437 4.36408,14.30074 3.78879,1.83456 6.28678,1.25054 12.55516,-2.93532 z M 596.6849,401.94411 c 4.61896,-1.73248 10.19095,-6.00716 12.31946,-9.45117 2.81619,-4.55669 2.65949,-10.92 -0.34285,-13.92234 -2.55886,-2.55886 -10.85916,-4.25663 -14.85337,-3.03816 -5.75353,1.75517 -9.80814,8.7251 -9.80814,16.86033 0,4.59516 0.32079,5.57427 2.00106,6.10757 1.10059,0.34931 2.46642,1.50463 3.03519,2.56738 1.16092,2.16921 3.49029,2.43611 7.64865,0.87639 z M 525.75,274.03811 c 1.66777,-3.30729 2.25,-6.2016 2.25,-11.1849 0,-8.03002 -1.04698,-11.18266 -4.45537,-13.41592 -2.30431,-1.50985 -2.76624,-1.5221 -4.89122,-0.12976 -1.29063,0.84565 -2.92022,2.9224 -3.62132,4.61501 -0.7011,1.6926 -1.65858,3.07746 -2.12773,3.07746 -1.40465,0 -3.90436,5.68459 -3.90436,8.87891 0,2.88936 2.1609,6.12109 4.09287,6.12109 0.5225,0 1.4417,1.07914 2.04265,2.39809 1.17315,2.57479 4.42843,4.61222 6.86448,4.29639 0.825,-0.10697 2.5125,-2.20233 3.75,-4.65637 z M 497.82419,347.25 c -0.81719,-0.9625 -2.64863,-3.775 -4.06988,-6.25 -1.42125,-2.475 -4.19739,-6.05078 -6.1692,-7.94617 -3.62986,-3.48917 -4.53884,-3.55386 -2.42729,-0.17273 0.6368,1.01968 0.86848,2.60798 0.51484,3.52956 -0.98978,2.57932 -4.26138,0.32155 -6.80192,-4.6941 -2.8375,-5.60188 -12.12592,-18.29663 -15.59837,-21.31873 -1.5248,-1.32705 -7.49737,-5.47614 -13.27237,-9.2202 -5.775,-3.74407 -13.77975,-8.93075 -17.78834,-11.52597 C 425.25718,285.14922 423.89635,283 428,283 c 1.03508,0 2.17525,0.47455 2.53371,1.05455 0.70048,1.1334 13.21077,9.63385 24.93896,16.94545 8.78069,5.47407 12.75022,8.56374 21.84116,17 13.66346,12.6795 16.08305,15.27527 21.04482,22.57718 3.83723,5.64699 3.38528,11.2896 -0.53446,6.67282 z M 419.09783,286.85078 C 418.49402,285.1187 418,280.30456 418,276.15268 c 0,-8.64636 -1.74578,-23.31327 -3.27069,-27.47819 -0.56897,-1.55403 -2.81234,-4.25403 -4.98525,-6 C 405.44434,239.2196 403,235.32743 403,231.93581 403,229.04451 407.03007,222 408.68414,222 c 1.63478,0 1.64592,-0.49863 0.0676,-3.02592 -1.0198,-1.63296 -0.96732,-2.49983 0.28675,-4.73643 1.22338,-2.18185 2.33963,-2.78245 5.49826,-2.95834 5.34286,-0.29751 10.8657,1.30263 14.10098,4.0855 2.13462,1.83612 2.76113,3.39972 3.12621,7.80218 0.54678,6.59342 -0.57173,9.06681 -7.68464,16.99327 -3.28532,3.66108 -5.0793,6.55685 -5.0793,8.19878 0,3.67343 2.84626,25.273 4.10357,31.14096 1.72947,8.07163 -1.61499,14.20891 -4.00574,7.35078 z m 2.4783,-49.45191 c 1.60813,-1.98063 3.53084,-4.24296 4.2727,-5.02741 2.15144,-2.27495 2.57641,-8.64846 0.80506,-12.07387 -1.8175,-3.51465 -7.52195,-6.56223 -11.43805,-6.11072 -2.44933,0.2824 -2.72415,0.71861 -2.80052,4.44523 -0.0537,2.62176 -0.87613,5.13827 -2.25,6.88486 -1.4439,1.83563 -2.15424,4.12379 -2.13205,6.8679 l 0.0333,4.11514 1.88786,-2.26338 c 1.03832,-1.24486 2.0624,-2.78703 2.27574,-3.42705 0.68101,-2.04301 2.76935,0.20734 2.78351,2.99945 0.0206,4.06574 1.07634,7.19098 2.42911,7.19098 0.66523,0 2.52525,-1.62051 4.13337,-3.60113 z"
         id="path293"
         sodipodi:nodetypes="sssscssssscssssscssssssssscsssssssscssssssssssssscsssscccsssssssssssssssssscccssssssssssssssssscssssssssssssssssssssssssssssssssssssssssssssssssssssssssssscscsssssssssssssssssssssssssssssssssssssssssssssssssssssssssssssssssssssssssssssssssssssssssscssssss" />
      <path
         d="m 406.646,1662.1429 c 0.42784,-13.6507 20.20224,-184.5271 21.92372,-194.4112 1.34107,-7.7 2.9389,-18.5 3.55071,-24 0.61182,-5.5 1.99729,-17.875 3.07881,-27.5 1.08152,-9.625 2.07494,-21.325 2.20758,-26 0,0 6.46379,0.4976 5.80863,8 -0.6484,7.425 -1.53685,14.175 -1.97432,15 -0.43748,0.825 -1.5386,9.825 -2.44695,20 -1.65708,18.5623 -3.74618,33.7413 -5.46204,39.6861 -0.6977,2.4173 -23.07112,176.5601 -23.14226,186.9972 -0.006,0.9123 1.96592,1.8694 5.48509,2.6619"
         style="fill:#000000"
         id="path462"
         sodipodi:nodetypes="cssscsssssc" />
    </g>
    <g
       aria-label="jstirling"
       id="text237"
       style="font-size:40px;line-height:1.25;font-family:'Gloria Hallelujah';-inkscape-font-specification:'Gloria Hallelujah';letter-spacing:0px;word-spacing:0px"
       transform="translate(-63.299599,11.288647)">
      <path
         d="m 181.98235,253.81628 q 1.13281,0 2.07031,0.58594 0.9375,0.58594 1.99219,1.25 1.01562,0.70313 2.22656,1.28906 1.21094,0.58594 2.8125,0.58594 1.60156,0 3.125,-0.42969 1.52344,-0.39062 2.73437,-1.25 1.21094,-0.82031 1.95313,-2.1875 0.74219,-1.32812 0.74219,-3.16406 0,-3.04687 -0.50782,-6.32812 -0.46875,-3.28125 -1.25,-6.52344 -0.74218,-3.28125 -1.64062,-6.36719 -0.85938,-3.08594 -1.60156,-5.70312 0,-0.0391 -0.0391,-0.19532 -0.0391,-0.15625 -0.0391,-0.19531 0,-0.78125 0.54688,-1.05469 0.54687,-0.3125 1.17187,-0.3125 0.15625,0 0.46875,0.0391 0.3125,0.0391 0.39063,0.0391 1.21093,3.04687 2.26562,6.25 1.09375,3.16406 1.91406,6.44531 0.82032,3.28125 1.28907,6.5625 0.46875,3.32031 0.46875,6.5625 0,2.53906 -0.89844,4.60938 -0.85938,2.07031 -2.42188,3.51562 -1.5625,1.44531 -3.75,2.22656 -2.14843,0.78125 -4.6875,0.78125 -1.67968,0 -3.32031,-0.39062 -1.67969,-0.35156 -3.00781,-1.17188 -1.36719,-0.82031 -2.1875,-2.1875 -0.82031,-1.32812 -0.82031,-3.28125 z m 9.17968,-39.53125 q 0,-0.11718 0,-0.46875 0,-0.35156 0.0781,-0.70312 0.0781,-0.39063 0.27344,-0.66406 0.19531,-0.27344 0.58593,-0.27344 0.66407,0 1.01563,0.19531 0.35156,0.15625 0.50781,0.42969 0.15625,0.23437 0.19531,0.625 0.0391,0.35156 0.0391,0.82031 0,0.3125 -0.0391,0.70313 -0.0391,0.39062 -0.15625,0.74218 -0.11718,0.35157 -0.39062,0.58594 -0.27344,0.19531 -0.74219,0.19531 -0.46875,0 -0.74219,-0.19531 -0.27343,-0.23437 -0.42968,-0.54687 -0.11719,-0.3125 -0.15625,-0.70313 -0.0391,-0.39062 -0.0391,-0.74219 z"
         id="path498" />
      <path
         d="m 210.49797,239.75378 q 0.625,-0.42968 1.48438,-1.09375 0.89843,-0.70312 1.79687,-1.48437 0.89844,-0.78125 1.67969,-1.64063 0.78125,-0.85937 1.21094,-1.64062 0.46875,-0.82031 0.46875,-1.52344 0,-0.70312 -0.70313,-1.17187 -1.25,0 -2.73437,0.11718 -1.48438,0.0781 -2.96875,0.0781 -1.48438,-0.0391 -2.89063,-0.27344 -1.36719,-0.23437 -2.46094,-0.85937 -1.09375,-0.625 -1.75781,-1.75782 -0.625,-1.17187 -0.625,-2.96875 0,-2.10937 0.78125,-3.78906 0.82031,-1.71875 2.14844,-3.00781 1.32812,-1.32813 2.96875,-2.30469 1.67969,-1.01562 3.35937,-1.71875 1.01563,0.27344 1.875,0.97656 0.85938,0.70313 1.48438,1.5625 -0.27344,0.85938 -1.09375,1.32813 -0.78125,0.46875 -1.83594,0.82031 -1.01562,0.35156 -2.14844,0.74219 -1.13281,0.39062 -2.07031,1.05469 -0.89844,0.625 -1.52344,1.67968 -0.625,1.01563 -0.625,2.69532 0,1.25 0.625,1.83593 0.625,0.58594 1.64063,0.82032 1.01562,0.19531 2.30469,0.15625 1.28906,-0.0781 2.61718,-0.19532 1.36719,-0.11718 2.65625,-0.11718 1.28907,-0.0391 2.30469,0.3125 1.01563,0.3125 1.60156,1.05468 0.625,0.74219 0.625,2.1875 0,0.625 -0.42968,1.60157 -0.39063,0.97656 -1.09375,2.10937 -0.66407,1.09375 -1.60157,2.1875 -0.89843,1.09375 -1.91406,1.99219 -0.97656,0.85937 -1.99219,1.44531 -0.97656,0.54688 -1.83593,0.54688 -0.82032,0 -1.09375,-0.58594 -0.23438,-0.58594 -0.23438,-1.17188 z"
         id="path500" />
      <path
         d="m 221.39641,221.8241 q 0,-0.11719 0.0391,-0.19532 0,-0.0781 0.0391,-0.19531 0.15625,-0.19531 0.46875,-0.50781 0.3125,-0.3125 0.39063,-0.3125 h 7.85156 q 0,-0.42969 -0.11719,-1.36719 -0.11718,-0.9375 -0.23437,-2.07031 -0.0781,-1.13281 -0.0391,-2.34375 0.0391,-1.25 0.3125,-2.22656 0.3125,-1.01563 0.9375,-1.64063 0.66406,-0.66406 1.83593,-0.66406 0,3.94531 0.54688,6.32812 0.54687,2.38282 1.44531,3.67188 0.9375,1.28906 2.10938,1.67969 1.17187,0.39062 2.38281,0.35156 1.25,-0.0781 2.42187,-0.39063 1.17188,-0.3125 2.07032,-0.42968 0.9375,-0.11719 1.48437,0.19531 0.54688,0.27344 0.54688,1.36719 0,0.82031 -0.39063,1.17187 -0.35156,0.35156 -1.40625,0.54688 -0.3125,0.0391 -1.05469,0.15625 -0.70312,0.0781 -1.60156,0.15625 -0.89844,0.0781 -1.91406,0.19531 -1.01563,0.0781 -1.91406,0.15625 -0.89844,0.0781 -1.64063,0.11719 -0.74219,0 -1.09375,0 0,0.19531 -0.0391,0.66406 -0.0391,0.46875 -0.0391,0.625 0,1.71875 0.54687,3.35937 0.54688,1.60157 1.17188,3.20313 0.66406,1.60156 1.21093,3.20312 0.54688,1.60157 0.54688,3.32032 0,0.3125 -0.0781,0.66406 -0.0391,0.3125 -0.23437,0.58594 -0.15625,0.23437 -0.50781,0.35156 -0.3125,0.15625 -0.89844,-0.0391 -1.48438,-0.39063 -2.22656,-1.67969 -0.70313,-1.28906 -1.05469,-3.04688 -0.35156,-1.79687 -0.46875,-3.78906 -0.11719,-1.99219 -0.39063,-3.71094 -0.23437,-1.75781 -0.78125,-2.96875 -0.54687,-1.25 -1.75781,-1.52343 l -7.53906,-1.71875 q -0.15625,0 -0.46875,-0.3125 -0.3125,-0.35157 -0.39063,-0.50782 -0.0391,-0.0781 -0.0391,-0.19531 -0.0391,-0.0781 -0.0391,-0.23437 z"
         id="path502" />
      <path
         d="m 249.0136,226.86316 q 0,-0.23438 0,-0.74219 0.0391,-0.54687 0.0391,-1.13281 0.0391,-0.58594 0.0391,-1.13281 0.0391,-0.54688 0.0391,-0.78125 0.42969,-0.625 1.09375,-1.01563 0.70313,-0.39062 1.40625,-0.625 0.11719,2.10938 0.66407,4.49219 0.54687,2.38281 1.17187,4.80469 0.625,2.38281 1.09375,4.72656 0.50781,2.34375 0.50781,4.375 0,1.75781 -1.79687,1.75781 -1.09375,0 -1.83594,-0.89844 -0.74219,-0.89843 -1.21094,-2.26562 -0.42968,-1.40625 -0.70312,-3.08594 -0.27344,-1.71875 -0.39063,-3.35937 -0.0781,-1.64063 -0.11718,-3.00782 0,-1.36718 0,-2.10937 z m 0.54687,-14.64844 q 0.74219,0.3125 1.25,1.01563 0.50781,0.70312 0.42969,1.28906 -0.0391,0.54687 -0.85938,0.78125 -0.82031,0.19531 -2.73437,-0.46875 0,-1.05469 0.39062,-1.83594 0.42969,-0.78125 1.52344,-0.78125 z"
         id="path504" />
      <path
         d="m 256.59172,225.10535 q 0,-0.35157 0.0391,-0.70313 0.0391,-0.39062 0.15625,-0.66406 0.11719,-0.3125 0.35157,-0.50781 0.27343,-0.19532 0.74218,-0.19532 0.39063,0 0.85938,0.625 0.50781,0.58594 1.01562,1.52344 0.50782,0.89844 0.97657,1.99219 0.50781,1.09375 0.85937,2.03125 0.39063,0.89844 0.625,1.5625 0.23438,0.66406 0.27344,0.70312 0.50781,-1.36718 1.13281,-2.96875 0.625,-1.60156 1.52344,-2.96875 0.9375,-1.40625 2.1875,-2.34375 1.28906,-0.9375 3.125,-0.9375 0.9375,0 1.75781,0.3125 0.85938,0.27344 1.48438,0.85938 0.66406,0.54687 1.05468,1.32812 0.39063,0.78125 0.39063,1.79688 0,0.85937 -0.70313,1.21094 -0.66406,0.35156 -1.52343,0.35156 h -0.39063 l -1.67969,-1.67969 q -0.0781,0 -0.11718,-0.0391 -0.0781,0 -0.15625,0 -0.0391,-0.0391 -0.11719,-0.0391 -1.36719,0 -2.14844,0.78125 -0.74219,0.74218 -1.13281,1.875 -0.39063,1.09375 -0.50781,2.34375 -0.0781,1.21093 -0.0781,2.22656 0,0.78125 0.15625,1.60156 0.15625,0.78125 0.35156,1.5625 0.19532,0.74219 0.35157,1.5625 0.15625,0.78125 0.15625,1.64063 0,1.64062 -1.75782,1.64062 -0.97656,0 -2.03125,-1.01562 -1.05468,-1.05469 -2.10937,-2.65625 -1.01563,-1.60157 -1.95313,-3.51563 -0.9375,-1.95312 -1.64062,-3.78906 -0.70313,-1.83594 -1.13281,-3.32031 -0.39063,-1.48438 -0.39063,-2.1875 z"
         id="path506" />
      <path
         d="m 277.49016,219.40222 q 0,-1.13281 -0.15625,-2.1875 -0.15625,-1.09375 -0.0781,-1.91406 0.0781,-0.85938 0.58594,-1.36719 0.54688,-0.50781 1.95313,-0.50781 0.42968,0.89844 0.82031,2.73437 0.42969,1.83594 0.82031,4.21875 0.39063,2.38282 0.74219,5.19532 0.35156,2.77343 0.625,5.58593 0.3125,2.8125 0.50781,5.54688 0.23438,2.69531 0.35156,4.92187 -1.28906,0.85938 -2.07031,0.11719 -0.78125,-0.74219 -1.28906,-2.5 -0.50781,-1.79687 -0.78125,-4.33594 -0.27344,-2.57812 -0.54688,-5.3125 -0.23437,-2.77343 -0.58593,-5.42968 -0.35157,-2.69532 -0.89844,-4.76563 z"
         id="path508" />
      <path
         d="m 287.33391,226.86316 q 0,-0.23438 0,-0.74219 0.0391,-0.54687 0.0391,-1.13281 0.0391,-0.58594 0.0391,-1.13281 0.0391,-0.54688 0.0391,-0.78125 0.42968,-0.625 1.09375,-1.01563 0.70312,-0.39062 1.40625,-0.625 0.11718,2.10938 0.66406,4.49219 0.54687,2.38281 1.17187,4.80469 0.625,2.38281 1.09375,4.72656 0.50782,2.34375 0.50782,4.375 0,1.75781 -1.79688,1.75781 -1.09375,0 -1.83594,-0.89844 -0.74218,-0.89843 -1.21093,-2.26562 -0.42969,-1.40625 -0.70313,-3.08594 -0.27344,-1.71875 -0.39062,-3.35937 -0.0781,-1.64063 -0.11719,-3.00782 0,-1.36718 0,-2.10937 z m 0.54687,-14.64844 q 0.74219,0.3125 1.25,1.01563 0.50782,0.70312 0.42969,1.28906 -0.0391,0.54687 -0.85937,0.78125 -0.82032,0.19531 -2.73438,-0.46875 0,-1.05469 0.39063,-1.83594 0.42968,-0.78125 1.52343,-0.78125 z"
         id="path510" />
      <path
         d="m 294.91203,228.34753 q 0,-1.01562 0.50782,-1.44531 0.50781,-0.46875 1.64062,-0.46875 h 0.39063 q 0.11718,0.625 0.27343,1.44531 0.15625,0.82032 0.46875,1.67969 0.3125,0.85938 0.74219,1.60156 0.42969,0.70313 1.05469,1.13282 0.0391,-1.36719 0.66406,-2.61719 0.66406,-1.28906 1.60156,-2.26563 0.97657,-1.01562 2.10938,-1.67968 1.17187,-0.70313 2.30469,-0.9375 h 0.85937 q 1.875,0 3.20313,0.85937 1.32812,0.82031 2.1875,2.1875 0.89843,1.32813 1.36718,3.04688 0.46875,1.71875 0.70313,3.51562 0.27344,1.75781 0.3125,3.4375 0.0781,1.64063 0.0781,2.8125 h -2.85156 q -0.23437,-2.34375 -0.58594,-4.49219 -0.11718,-0.85937 -0.3125,-1.79687 -0.19531,-0.97656 -0.42968,-1.79688 -0.23438,-0.85937 -0.50782,-1.5625 -0.27343,-0.74218 -0.625,-1.25 -0.15625,-0.15625 -0.42968,-0.42968 -0.23438,-0.27344 -0.50782,-0.54688 -0.27343,-0.27344 -0.50781,-0.46875 -0.23437,-0.19531 -0.27344,-0.19531 -1.17187,-0.3125 -2.03125,0.46875 -0.85937,0.74219 -1.52343,2.03125 -0.66407,1.28906 -1.09375,2.92969 -0.39063,1.64062 -0.66407,3.16406 -0.27343,1.48437 -0.39062,2.61719 -0.11719,1.09375 -0.15625,1.32812 -0.97656,0.70313 -1.83594,0.42969 -0.85937,-0.3125 -1.64062,-1.25 -0.74219,-0.9375 -1.36719,-2.34375 -0.58594,-1.40625 -1.09375,-2.96875 -0.50781,-1.60156 -0.9375,-3.20313 -0.39063,-1.60156 -0.70313,-2.96875 z"
         id="path512" />
      <path
         d="m 327.60735,262.29285 q 2.1875,0 3.90625,-0.82032 1.71875,-0.78125 2.89062,-2.1875 1.21094,-1.36718 1.83594,-3.16406 0.66406,-1.75781 0.66406,-3.67187 0,-0.97657 -0.11719,-2.57813 -0.0781,-1.60156 -0.27343,-3.47656 -0.19532,-1.875 -0.58594,-3.82813 -0.35156,-1.95312 -0.89844,-3.67187 -0.54687,-1.75781 -1.36719,-3.04688 -0.78125,-1.32812 -1.83593,-1.875 -1.01563,0.78125 -1.99219,1.44532 -0.97656,0.625 -2.03125,1.05468 -1.05469,0.42969 -2.1875,0.70313 -1.13281,0.23437 -2.42188,0.23437 -1.67968,0 -2.89062,-0.3125 -1.17188,-0.3125 -1.99219,-1.05468 -0.78125,-0.74219 -1.17187,-1.95313 -0.39063,-1.21094 -0.39063,-3.04687 0,-1.28907 0.625,-2.5 0.625,-1.25 1.64063,-2.30469 1.05468,-1.09375 2.34375,-1.99219 1.32812,-0.89844 2.69531,-1.5625 1.40625,-0.66406 2.73437,-1.01562 1.36719,-0.35157 2.42188,-0.35157 1.01562,0 1.67969,0.0781 0.66406,0.0391 1.13281,0.3125 0.46875,0.23437 0.78125,0.78125 0.35156,0.50781 0.66406,1.40625 0.89844,3.04687 2.07031,6.5625 1.17188,3.51562 2.22657,7.22656 1.05468,3.71094 1.75781,7.46094 0.74219,3.78906 0.74219,7.30469 0,3.125 -0.89844,5.27343 -0.85938,2.1875 -2.30469,3.55469 -1.40625,1.40625 -3.24219,2.14844 -1.79687,0.74219 -3.63281,0.9375 -1.83594,0.23437 -3.55469,0.11719 -1.71875,-0.11719 -2.96875,-0.46875 -1.25,-0.3125 -1.91406,-0.74219 -0.625,-0.42969 -0.3125,-0.74219 0.35156,-0.27344 1.79688,-0.39062 1.44531,-0.11719 4.375,0.15625 z m 0.54687,-37.69532 q -2.89062,0.625 -4.6875,1.75782 -1.75781,1.09375 -2.65625,2.38281 -0.85937,1.25 -0.9375,2.53906 -0.0781,1.25 0.46875,2.14844 0.54688,0.89844 1.5625,1.36719 1.05469,0.42968 2.38281,0.0391 1.32813,-0.42969 2.8125,-1.79688 1.52344,-1.36718 3.04688,-4.0625 0,-0.66406 0,-1.44531 0.0391,-0.78125 -0.11719,-1.40625 -0.15625,-0.66406 -0.58594,-1.09375 -0.42968,-0.42969 -1.28906,-0.42969 z"
         id="path514" />
    </g>
    <g
       aria-label="timm"
       id="text237-6"
       style="font-size:40px;line-height:1.25;font-family:'Gloria Hallelujah';-inkscape-font-specification:'Gloria Hallelujah';letter-spacing:0px;word-spacing:0px"
       transform="translate(-37.885039,1.7827432)">
      <path
         d="m 667.42279,371.23434 q 0,-0.11718 0.0391,-0.19531 0,-0.0781 0.0391,-0.19531 0.15625,-0.19531 0.46875,-0.50781 0.3125,-0.3125 0.39062,-0.3125 h 7.85156 q 0,-0.42969 -0.11718,-1.36719 -0.11719,-0.9375 -0.23438,-2.07031 -0.0781,-1.13282 -0.0391,-2.34375 0.0391,-1.25 0.3125,-2.22657 0.3125,-1.01562 0.9375,-1.64062 0.66406,-0.66406 1.83594,-0.66406 0,3.94531 0.54687,6.32812 0.54688,2.38281 1.44531,3.67188 0.9375,1.28906 2.10938,1.67968 1.17187,0.39063 2.38281,0.35157 1.25,-0.0781 2.42188,-0.39063 1.17187,-0.3125 2.07031,-0.42969 0.9375,-0.11718 1.48437,0.19532 0.54688,0.27343 0.54688,1.36718 0,0.82032 -0.39063,1.17188 -0.35156,0.35156 -1.40625,0.54687 -0.3125,0.0391 -1.05468,0.15625 -0.70313,0.0781 -1.60157,0.15625 -0.89843,0.0781 -1.91406,0.19532 -1.01562,0.0781 -1.91406,0.15625 -0.89844,0.0781 -1.64063,0.11718 -0.74218,0 -1.09375,0 0,0.19532 -0.0391,0.66407 -0.0391,0.46875 -0.0391,0.625 0,1.71875 0.54687,3.35937 0.54688,1.60156 1.17188,3.20313 0.66406,1.60156 1.21094,3.20312 0.54687,1.60156 0.54687,3.32031 0,0.3125 -0.0781,0.66407 -0.0391,0.3125 -0.23438,0.58593 -0.15625,0.23438 -0.50781,0.35157 -0.3125,0.15625 -0.89844,-0.0391 -1.48437,-0.39062 -2.22656,-1.67968 -0.70313,-1.28907 -1.05469,-3.04688 -0.35156,-1.79687 -0.46875,-3.78906 -0.11719,-1.99219 -0.39062,-3.71094 -0.23438,-1.75781 -0.78125,-2.96875 -0.54688,-1.25 -1.75782,-1.52344 l -7.53906,-1.71875 q -0.15625,0 -0.46875,-0.3125 -0.3125,-0.35156 -0.39062,-0.50781 -0.0391,-0.0781 -0.0391,-0.19531 -0.0391,-0.0781 -0.0391,-0.23438 z"
         id="path489" />
      <path
         d="m 695.03998,376.27341 q 0,-0.23438 0,-0.74219 0.0391,-0.54688 0.0391,-1.13281 0.0391,-0.58594 0.0391,-1.13282 0.0391,-0.54687 0.0391,-0.78125 0.42968,-0.625 1.09375,-1.01562 0.70312,-0.39063 1.40625,-0.625 0.11718,2.10937 0.66406,4.49219 0.54687,2.38281 1.17187,4.80468 0.625,2.38282 1.09375,4.72657 0.50782,2.34375 0.50782,4.375 0,1.75781 -1.79688,1.75781 -1.09375,0 -1.83594,-0.89844 -0.74218,-0.89844 -1.21093,-2.26562 -0.42969,-1.40625 -0.70313,-3.08594 -0.27344,-1.71875 -0.39062,-3.35938 -0.0781,-1.64062 -0.11719,-3.00781 0,-1.36719 0,-2.10937 z m 0.54687,-14.64844 q 0.74219,0.3125 1.25,1.01562 0.50782,0.70313 0.42969,1.28907 -0.0391,0.54687 -0.85937,0.78125 -0.82032,0.19531 -2.73438,-0.46875 0,-1.05469 0.39063,-1.83594 0.42968,-0.78125 1.52343,-0.78125 z"
         id="path491" />
      <path
         d="m 701.75873,374.51559 q 0,-0.97656 0.3125,-1.52343 0.35156,-0.54688 1.44531,-0.54688 0.11719,0 0.42969,0.0391 0.35156,0 0.42969,0 0.27343,1.21094 0.54687,2.65625 0.3125,1.40625 0.70313,2.85157 0.39062,1.44531 0.85937,2.85156 0.50781,1.40625 1.21094,2.53906 0.70312,-0.74219 1.01562,-1.75781 0.3125,-1.01563 0.46875,-2.03125 0.15625,-1.05469 0.27344,-1.99219 0.15625,-0.97656 0.58594,-1.64062 0.42969,-0.70313 1.25,-1.01563 0.85937,-0.3125 2.34375,0 1.64062,0 2.61719,0.625 0.97656,0.58594 1.67968,1.52344 0.74219,0.89844 1.40625,1.95312 0.70313,1.01563 1.75782,1.83594 0.23437,-0.50781 0.58593,-1.25 0.35157,-0.78125 0.85938,-1.60156 0.54687,-0.85938 1.13281,-1.67969 0.625,-0.85937 1.28906,-1.52344 0.66407,-0.70312 1.36719,-1.13281 0.70313,-0.46875 1.36719,-0.46875 1.60156,0 2.77344,1.01563 1.17187,0.97656 1.99218,2.5 0.85938,1.48437 1.40625,3.35937 0.54688,1.83594 0.85938,3.55469 0.3125,1.71875 0.42969,3.16406 0.15625,1.40625 0.15625,2.03125 0,0.50781 -0.23438,0.78125 -0.23437,0.27344 -0.58594,0.42969 -0.35156,0.11719 -0.78125,0.15625 -0.39062,0.0391 -0.74218,0.0391 -0.0781,0 -0.23438,0 -0.15625,-0.0391 -0.35156,-0.0781 -0.15625,-0.0391 -0.42969,-0.11719 l -2.53906,-11.67969 q 0,-0.11719 -0.3125,-0.42969 -0.3125,-0.35156 -0.46875,-0.42968 -0.11719,0 -0.19531,-0.0391 -0.0781,0 -0.11719,0 -0.0391,-0.0391 -0.0781,-0.0391 -0.82031,0 -1.5625,0.66406 -0.70312,0.66407 -1.32812,1.67969 -0.625,1.01563 -1.17188,2.26563 -0.54687,1.25 -0.97656,2.5 -0.42969,1.21093 -0.78125,2.26562 -0.3125,1.01563 -0.50781,1.5625 -0.15625,0.0781 -0.625,0.15625 -0.46875,0.0391 -0.625,0.0391 -1.09375,0 -1.67969,-0.74218 -0.58594,-0.78125 -0.97656,-1.91407 -0.35156,-1.13281 -0.625,-2.46093 -0.23438,-1.36719 -0.625,-2.5 -0.35156,-1.13282 -1.01563,-1.875 -0.625,-0.78125 -1.79687,-0.78125 -0.42969,0 -0.82031,0.85937 -0.39063,0.85938 -0.70313,2.1875 -0.3125,1.28906 -0.58594,2.8125 -0.27343,1.48438 -0.46875,2.8125 -0.15625,1.28906 -0.23437,2.1875 -0.0781,0.89844 -0.0781,0.89844 -0.0781,0.11719 -0.3125,0.27344 -0.23437,0.11718 -0.50781,0.27343 -0.23437,0.15625 -0.50781,0.23438 -0.23438,0.0781 -0.35156,0.0781 -1.09375,0 -2.10938,-0.97656 -1.01562,-1.01562 -1.875,-2.57812 -0.82031,-1.60157 -1.52344,-3.51563 -0.66406,-1.91406 -1.13281,-3.75 -0.46875,-1.83594 -0.74219,-3.32031 -0.23437,-1.48438 -0.23437,-2.26563 z"
         id="path493" />
      <path
         d="m 736.0556,374.51559 q 0,-0.97656 0.3125,-1.52343 0.35157,-0.54688 1.44532,-0.54688 0.11718,0 0.42968,0.0391 0.35157,0 0.42969,0 0.27344,1.21094 0.54688,2.65625 0.3125,1.40625 0.70312,2.85157 0.39063,1.44531 0.85938,2.85156 0.50781,1.40625 1.21093,2.53906 0.70313,-0.74219 1.01563,-1.75781 0.3125,-1.01563 0.46875,-2.03125 0.15625,-1.05469 0.27344,-1.99219 0.15625,-0.97656 0.58593,-1.64062 0.42969,-0.70313 1.25,-1.01563 0.85938,-0.3125 2.34375,0 1.64063,0 2.61719,0.625 0.97656,0.58594 1.67969,1.52344 0.74219,0.89844 1.40625,1.95312 0.70312,1.01563 1.75781,1.83594 0.23438,-0.50781 0.58594,-1.25 0.35156,-0.78125 0.85937,-1.60156 0.54688,-0.85938 1.13282,-1.67969 0.625,-0.85937 1.28906,-1.52344 0.66406,-0.70312 1.36719,-1.13281 0.70312,-0.46875 1.36718,-0.46875 1.60157,0 2.77344,1.01563 1.17188,0.97656 1.99219,2.5 0.85937,1.48437 1.40625,3.35937 0.54687,1.83594 0.85937,3.55469 0.3125,1.71875 0.42969,3.16406 0.15625,1.40625 0.15625,2.03125 0,0.50781 -0.23437,0.78125 -0.23438,0.27344 -0.58594,0.42969 -0.35156,0.11719 -0.78125,0.15625 -0.39063,0.0391 -0.74219,0.0391 -0.0781,0 -0.23437,0 -0.15625,-0.0391 -0.35157,-0.0781 -0.15625,-0.0391 -0.42968,-0.11719 l -2.53907,-11.67969 q 0,-0.11719 -0.3125,-0.42969 -0.3125,-0.35156 -0.46875,-0.42968 -0.11718,0 -0.19531,-0.0391 -0.0781,0 -0.11719,0 -0.0391,-0.0391 -0.0781,-0.0391 -0.82031,0 -1.5625,0.66406 -0.70313,0.66407 -1.32813,1.67969 -0.625,1.01563 -1.17187,2.26563 -0.54688,1.25 -0.97656,2.5 -0.42969,1.21093 -0.78125,2.26562 -0.3125,1.01563 -0.50782,1.5625 -0.15625,0.0781 -0.625,0.15625 -0.46875,0.0391 -0.625,0.0391 -1.09375,0 -1.67968,-0.74218 -0.58594,-0.78125 -0.97657,-1.91407 -0.35156,-1.13281 -0.625,-2.46093 -0.23437,-1.36719 -0.625,-2.5 -0.35156,-1.13282 -1.01562,-1.875 -0.625,-0.78125 -1.79688,-0.78125 -0.42968,0 -0.82031,0.85937 -0.39062,0.85938 -0.70312,2.1875 -0.3125,1.28906 -0.58594,2.8125 -0.27344,1.48438 -0.46875,2.8125 -0.15625,1.28906 -0.23438,2.1875 -0.0781,0.89844 -0.0781,0.89844 -0.0781,0.11719 -0.3125,0.27344 -0.23438,0.11718 -0.50781,0.27343 -0.23438,0.15625 -0.50782,0.23438 -0.23437,0.0781 -0.35156,0.0781 -1.09375,0 -2.10937,-0.97656 -1.01563,-1.01562 -1.875,-2.57812 -0.82032,-1.60157 -1.52344,-3.51563 -0.66406,-1.91406 -1.13281,-3.75 -0.46875,-1.83594 -0.74219,-3.32031 -0.23438,-1.48438 -0.23438,-2.26563 z"
         id="path495" />
    </g>
    <circle
       style="opacity:1;fill:#ffffff;fill-opacity:0;stroke:#000000;stroke-width:4;stroke-dasharray:12, 12;stroke-dashoffset:0;-inkscape-stroke:none;stop-color:#000000"
       id="path645-3"
       cx="548.0462"
       cy="381.43927"
       r="27.98826" />
    <g
       class="node-hover"
       id="g27">
      <circle
         style="fill:#ffffff;fill-opacity:0;stroke:#000000;stroke-width:4;stroke-dasharray:12, 12;stroke-dashoffset:0;-inkscape-stroke:none;stop-color:#000000"
         id="path645-3-6"
         cx="356.9057"
         cy="240.13037"
         r="27.98826" />
    </g>
    <path
       d="m 289.14285,257.7006 q -1.25,0 -2.125,-0.875 -0.875,-0.875 -0.875,-2.125 v -21.7 q 0,-1.25 0.875,-2.125 0.875,-0.875 2.125,-0.875 h 3.5 v -4.8 q 0,-3.95 2.775,-6.725 2.775,-2.775 6.725,-2.775 3.95,0 6.725,2.775 2.775,2.775 2.775,6.725 v 4.8 h 3.5 q 1.25,0 2.125,0.875 0.875,0.875 0.875,2.125 v 21.7 q 0,1.25 -0.875,2.125 -0.875,0.875 -2.125,0.875 z m 13,-10 q 1.6,0 2.725,-1.1 1.125,-1.1 1.125,-2.65 0,-1.5 -1.125,-2.725 -1.125,-1.225 -2.725,-1.225 -1.6,0 -2.725,1.225 -1.125,1.225 -1.125,2.725 0,1.55 1.125,2.65 1.125,1.1 2.725,1.1 z m -6.5,-17.7 h 13 v -4.8 q 0,-2.7 -1.9,-4.6 -1.9,-1.9 -4.6,-1.9 -2.7,0 -4.6,1.9 -1.9,1.9 -1.9,4.6 z"
       id="path1650" />
    <path
       d="m 590.00741,390.35437 q -1.25,0 -2.125,-0.875 -0.875,-0.875 -0.875,-2.125 v -21.7 q 0,-1.25 0.875,-2.125 0.875,-0.875 2.125,-0.875 h 3.5 v -4.8 q 0,-3.95 2.775,-6.725 2.775,-2.775 6.725,-2.775 3.95,0 6.725,2.775 2.775,2.775 2.775,6.725 v 4.8 h 3.5 q 1.25,0 2.125,0.875 0.875,0.875 0.875,2.125 v 21.7 q 0,1.25 -0.875,2.125 -0.875,0.875 -2.125,0.875 z m 13,-10 q 1.6,0 2.725,-1.1 1.125,-1.1 1.125,-2.65 0,-1.5 -1.125,-2.725 -1.125,-1.225 -2.725,-1.225 -1.6,0 -2.725,1.225 -1.125,1.225 -1.125,2.725 0,1.55 1.125,2.65 1.125,1.1 2.725,1.1 z m -6.5,-17.7 h 13 v -4.8 q 0,-2.7 -1.9,-4.6 -1.9,-1.9 -4.6,-1.9 -2.7,0 -4.6,1.9 -1.9,1.9 -1.9,4.6 z"
       id="path1650-5" />
    <circle
       style="fill:#ffffff;fill-opacity:0;stroke:#000000;stroke-width:4;stroke-dasharray:12, 12;stroke-dashoffset:0;-inkscape-stroke:none;stop-color:#000000"
       id="path645-3-7"
       cx="473.04492"
       cy="595.36566"
       r="27.98826" />
    <circle
       style="fill:#ffffff;fill-opacity:0;stroke:#000000;stroke-width:4;stroke-dasharray:12, 12;stroke-dashoffset:0;-inkscape-stroke:none;stop-color:#000000"
       id="path645-3-5"
       cx="396.32855"
       cy="805.42139"
       r="27.98826" />
    <circle
       style="fill:#ffffff;fill-opacity:0;stroke:#000000;stroke-width:5.4622;stroke-dasharray:16.3866, 16.3866;stroke-dashoffset:0;-inkscape-stroke:none;stop-color:#000000"
       id="path645-3-3"
       cx="484.70105"
       cy="1179.4537"
       r="38.219334" />
    <circle
       style="fill:#ffffff;fill-opacity:0;stroke:#000000;stroke-width:4.62712;stroke-dasharray:13.8814, 13.8814;stroke-dashoffset:0;-inkscape-stroke:none;stop-color:#000000"
       id="path645-3-56"
       cx="484.63831"
       cy="1372.684"
       r="32.376247" />
    <path
       style="fill:#000000;fill-opacity:1;stroke:#000000;stroke-width:0.153265;-inkscape-stroke:none;stop-color:#000000"
       d="m 342.69904,69.498677 c -0.0892,-0.02106 -0.41059,-0.09504 -0.71417,-0.164407 -1.56513,-0.357643 -3.27873,-1.434717 -4.26223,-2.678999 -0.25161,-0.318331 -0.63418,-0.858181 -0.85015,-1.199665 -0.78945,-1.248285 -1.58733,-1.911719 -2.29912,-1.911719 -0.93231,0 -2.11622,-0.857214 -3.02435,-2.18977 -0.71011,-1.042003 -1.14327,-2.159219 -1.30325,-3.361434 -0.29542,-2.219938 0.85759,-6.724992 2.19859,-8.590344 0.26502,-0.368641 0.43845,-0.518402 0.77027,-0.66515 0.30753,-0.136006 0.49862,-0.291676 0.67791,-0.552268 0.39179,-0.56945 0.85051,-1.545825 1.22401,-2.60526 0.4196,-1.190209 0.83468,-2.03055 1.50225,-3.041347 0.65529,-0.992197 1.26369,-1.656768 2.07955,-2.271535 1.58181,-1.19193 2.09769,-1.226444 4.00069,-0.267663 4.06221,2.046654 5.29416,4.762145 6.13758,13.5286 0.15797,1.641896 0.13455,5.221947 -0.0419,6.403051 -0.17718,1.186078 -0.59419,2.83884 -0.98619,3.9086 -0.3826,1.044122 -1.46572,3.243379 -1.94965,3.958775 -0.94715,1.400148 -1.31499,1.670253 -2.331,1.711651 -0.36667,0.01494 -0.73966,0.0099 -0.82887,-0.01112 z"
       id="path580"
       transform="translate(118.68268,210.14246)" />
    <text
       xml:space="preserve"
       transform="matrix(0.63737749,0,0,0.63737749,245.79186,223.51807)"
       id="text702"
       style="font-style:normal;font-weight:normal;font-size:40px;line-height:1.25;font-family:sans-serif;letter-spacing:0px;word-spacing:0px;white-space:pre;shape-inside:url(#rect704);display:inline;fill:#808080;fill-opacity:1;stroke:none"><tspan
         x="365.2793"
         y="74.838367"
         id="tspan1858"><tspan
           style="font-family:'Gloria Hallelujah';-inkscape-font-specification:'Gloria Hallelujah'"
           id="tspan1856">Update donut.FCStd</tspan></tspan></text>
  </g>
</svg>
